lab4.sim/sim_1/behav/xsim/wave.vcd
$date
   Thu Mar  6 13:09:05 2025
$end
$version
  2018.2
$end
$timescale
  1ps
$end
$scope module tb $end
$var reg 1 ! clk $end
$var reg 16 " sw [15:0] $end
$var wire 16 # led [15:0] $end
$var wire 7 $ seg [0:6] $end
$var wire 4 % digit [3:0] $end
$scope module uut_ $end
$var wire 1 & clk $end
$var wire 16 ' sw [15:0] $end
$var wire 4 ( btn [3:0] $end
$var wire 16 # led [15:0] $end
$var wire 7 $ seg [0:6] $end
$var wire 4 % digit [3:0] $end
$var wire 1 ) sound $end
$var wire 7 * seg2 [6:0] $end
$var wire 1 + seg2_sel $end
$var wire 16 , sw_posedge [15:0] $end
$var wire 1 - w_display $end
$var wire 1 . w_blink $end
$var wire 4 / w_ones [3:0] $end
$var wire 4 0 level [3:0] $end
$var wire 1 1 restart_input $end
$var wire 1 2 reset_game $end
$var wire 1 3 next_level $end
$var reg 1 4 start_seq $end
$scope module buzzer $end
$var wire 1 & clk $end
$var wire 1 5 enable $end
$var wire 1 ) sound $end
$var reg 16 6 counter [15:0] $end
$upscope $end
$scope module inputs_ $end
$var wire 1 & clk $end
$var wire 16 ' sw [15:0] $end
$var reg 16 7 sw_posedge [15:0] $end
$var reg 16 8 sw_debounced [15:0] $end
$var reg 16 9 sw_debounced_prev [15:0] $end
$upscope $end
$scope module clock_ $end
$var wire 1 & clk $end
$var wire 1 2 reset $end
$var reg 1 : clk_display $end
$var reg 1 ; clk_blink $end
$var reg 32 < countDisplay [31:0] $end
$var reg 32 = countBlink [31:0] $end
$var parameter 32 > DIV_DISPLAY [31:0] $end
$var parameter 32 ? DIV_BLINK [31:0] $end
$upscope $end
$scope module seq_gen_ $end
$var wire 1 & clk $end
$var wire 1 . clk_blink $end
$var wire 1 2 reset $end
$var wire 1 @ start_seq $end
$var wire 4 0 level [3:0] $end
$var wire 16 # led [15:0] $end
$var reg 4 A index [3:0] $end
$var reg 16 B led_reg [15:0] $end
$var reg 1 C playing_seq $end
$upscope $end
$scope module player_seq_ $end
$var wire 1 & clk $end
$var wire 1 1 restart $end
$var wire 16 , sw [15:0] $end
$var wire 4 0 level [3:0] $end
$var reg 1 D correct $end
$var reg 1 E incorrect $end
$var reg 4 F index [3:0] $end
$var reg 32 G player_input [31:0] $end
$var wire 4 H encoded_sw [3:0] $end
$scope module encoder_ $end
$var wire 16 , in [15:0] $end
$var wire 4 H out [3:0] $end
$upscope $end
$upscope $end
$scope module counter_ $end
$var wire 1 & clk $end
$var wire 1 2 reset $end
$var wire 1 3 inc_counter $end
$var wire 4 / w_ones [3:0] $end
$var reg 4 I ones [3:0] $end
$upscope $end
$scope module seg7_ $end
$var wire 1 & clk $end
$var wire 1 - clk_display $end
$var wire 1 2 reset $end
$var wire 4 / ones [3:0] $end
$var reg 7 J seg [0:6] $end
$var reg 4 K digit [3:0] $end
$var reg 2 L digit_select [1:0] $end
$var parameter 7 M CLEAR [6:0] $end
$var parameter 7 N ZERO [6:0] $end
$var parameter 7 O ONE [6:0] $end
$var parameter 7 P TWO [6:0] $end
$var parameter 7 Q THREE [6:0] $end
$var parameter 7 R FOUR [6:0] $end
$var parameter 7 S FIVE [6:0] $end
$var parameter 7 T SIX [6:0] $end
$var parameter 7 U SEVEN [6:0] $end
$var parameter 7 V EIGHT [6:0] $end
$var parameter 7 W NINE [6:0] $end
$var parameter 7 X L [6:0] $end
$var parameter 7 Y V [6:0] $end
$upscope $end
$scope module seg7_2 $end
$var wire 1 & clk $end
$var wire 1 2 reset $end
$var wire 4 / ones [3:0] $end
$var reg 7 Z seg [0:6] $end
$var parameter 7 [ CLEAR [6:0] $end
$var parameter 7 \ ZERO [6:0] $end
$var parameter 7 ] ONE [6:0] $end
$var parameter 7 ^ TWO [6:0] $end
$var parameter 7 _ THREE [6:0] $end
$var parameter 7 ` FOUR [6:0] $end
$var parameter 7 a FIVE [6:0] $end
$var parameter 7 b SIX [6:0] $end
$var parameter 7 c SEVEN [6:0] $end
$var parameter 7 d EIGHT [6:0] $end
$var parameter 7 e NINE [6:0] $end
$upscope $end
$upscope $end
$upscope $end
$enddefinitions $end
#0
$dumpvars
0!
b0 "
b0 #
b1001111 $
b1110 %
0&
b0 '
bz (
x)
b1001111 *
0+
bx ,
0-
0.
b1 /
b0 0
z1
02
03
14
z5
bx 6
bx 7
bx 8
bx 9
0:
0;
b0 <
b0 =
b110000110101000000 >
b101111101011110000100000000 ?
1@
b0 A
b0 B
0C
0D
0E
b0 F
b0 G
bx H
b1 I
b1001111 J
b1110 K
b0 L
b1111111 M
b1 N
b1001111 O
b10010 P
b110 Q
b1001100 R
b100100 S
b100000 T
b1111 U
b0 V
b100 W
b1110001 X
b1000001 Y
b1001111 Z
b1111111 [
b1 \
b1001111 ]
b10010 ^
b110 _
b1001100 `
b100100 a
b100000 b
b1111 c
b0 d
b100 e
$end
#5000
1!
1&
04
0:
0;
b1 <
b1 =
0@
1C
#10000
0!
0&
#15000
1!
1&
0:
0;
b10 <
b10 =
#20000
0!
0&
#25000
1!
1&
b0 8
0:
0;
b11 <
b11 =
#30000
0!
0&
#35000
1!
1&
b0 ,
b0 7
b0 9
0:
0;
b100 <
b100 =
b0 H
#40000
0!
0&
#45000
1!
1&
0:
0;
b101 <
b101 =
#50000
0!
0&
#55000
1!
1&
0:
0;
b110 <
b110 =
#60000
0!
0&
#65000
1!
1&
0:
0;
b111 <
b111 =
#70000
0!
0&
#75000
1!
1&
0:
0;
b1000 <
b1000 =
#80000
0!
0&
#85000
1!
1&
0:
0;
b1001 <
b1001 =
#90000
0!
0&
#95000
1!
1&
0:
0;
b1010 <
b1010 =
#100000
0!
0&
#105000
1!
1&
0:
0;
b1011 <
b1011 =
#110000
0!
0&
#115000
1!
1&
0:
0;
b1100 <
b1100 =
#120000
0!
0&
#125000
1!
1&
0:
0;
b1101 <
b1101 =
#130000
0!
0&
#135000
1!
1&
0:
0;
b1110 <
b1110 =
#140000
0!
0&
#145000
1!
1&
0:
0;
b1111 <
b1111 =
#150000
0!
0&
#155000
1!
1&
0:
0;
b10000 <
b10000 =
#160000
0!
0&
#165000
1!
1&
0:
0;
b10001 <
b10001 =
#170000
0!
0&
#175000
1!
1&
0:
0;
b10010 <
b10010 =
#180000
0!
0&
#185000
1!
1&
0:
0;
b10011 <
b10011 =
#190000
0!
0&
#195000
1!
1&
0:
0;
b10100 <
b10100 =
#200000
0!
0&
#205000
1!
1&
0:
0;
b10101 <
b10101 =
#210000
0!
0&
#215000
1!
1&
0:
0;
b10110 <
b10110 =
#220000
0!
0&
#225000
1!
1&
0:
0;
b10111 <
b10111 =
#230000
0!
0&
#235000
1!
1&
0:
0;
b11000 <
b11000 =
#240000
0!
0&
#245000
1!
1&
0:
0;
b11001 <
b11001 =
#250000
0!
0&
#255000
1!
1&
0:
0;
b11010 <
b11010 =
#260000
0!
0&
#265000
1!
1&
0:
0;
b11011 <
b11011 =
#270000
0!
0&
#275000
1!
1&
0:
0;
b11100 <
b11100 =
#280000
0!
0&
#285000
1!
1&
0:
0;
b11101 <
b11101 =
#290000
0!
0&
#295000
1!
1&
0:
0;
b11110 <
b11110 =
#300000
0!
0&
#305000
1!
1&
0:
0;
b11111 <
b11111 =
#310000
0!
0&
#315000
1!
1&
0:
0;
b100000 <
b100000 =
#320000
0!
0&
#325000
1!
1&
0:
0;
b100001 <
b100001 =
#330000
0!
0&
#335000
1!
1&
0:
0;
b100010 <
b100010 =
#340000
0!
0&
#345000
1!
1&
0:
0;
b100011 <
b100011 =
#350000
0!
0&
#355000
1!
1&
0:
0;
b100100 <
b100100 =
#360000
0!
0&
#365000
1!
1&
0:
0;
b100101 <
b100101 =
#370000
0!
0&
#375000
1!
1&
0:
0;
b100110 <
b100110 =
#380000
0!
0&
#385000
1!
1&
0:
0;
b100111 <
b100111 =
#390000
0!
0&
#395000
1!
1&
0:
0;
b101000 <
b101000 =
#400000
0!
0&
#405000
1!
1&
0:
0;
b101001 <
b101001 =
#410000
0!
0&
#415000
1!
1&
0:
0;
b101010 <
b101010 =
#420000
0!
0&
#425000
1!
1&
0:
0;
b101011 <
b101011 =
#430000
0!
0&
#435000
1!
1&
0:
0;
b101100 <
b101100 =
#440000
0!
0&
#445000
1!
1&
0:
0;
b101101 <
b101101 =
#450000
0!
0&
#455000
1!
1&
0:
0;
b101110 <
b101110 =
#460000
0!
0&
#465000
1!
1&
0:
0;
b101111 <
b101111 =
#470000
0!
0&
#475000
1!
1&
0:
0;
b110000 <
b110000 =
#480000
0!
0&
#485000
1!
1&
0:
0;
b110001 <
b110001 =
#490000
0!
0&
#495000
1!
1&
0:
0;
b110010 <
b110010 =
#500000
0!
0&
#505000
1!
1&
0:
0;
b110011 <
b110011 =
#510000
0!
0&
#515000
1!
1&
0:
0;
b110100 <
b110100 =
#520000
0!
0&
#525000
1!
1&
0:
0;
b110101 <
b110101 =
#530000
0!
0&
#535000
1!
1&
0:
0;
b110110 <
b110110 =
#540000
0!
0&
#545000
1!
1&
0:
0;
b110111 <
b110111 =
#550000
0!
0&
#555000
1!
1&
0:
0;
b111000 <
b111000 =
#560000
0!
0&
#565000
1!
1&
0:
0;
b111001 <
b111001 =
#570000
0!
0&
#575000
1!
1&
0:
0;
b111010 <
b111010 =
#580000
0!
0&
#585000
1!
1&
0:
0;
b111011 <
b111011 =
#590000
0!
0&
#595000
1!
1&
0:
0;
b111100 <
b111100 =
#600000
0!
0&
#605000
1!
1&
0:
0;
b111101 <
b111101 =
#610000
0!
0&
#615000
1!
1&
0:
0;
b111110 <
b111110 =
#620000
0!
0&
#625000
1!
1&
0:
0;
b111111 <
b111111 =
#630000
0!
0&
#635000
1!
1&
0:
0;
b1000000 <
b1000000 =
#640000
0!
0&
#645000
1!
1&
0:
0;
b1000001 <
b1000001 =
#650000
0!
0&
#655000
1!
1&
0:
0;
b1000010 <
b1000010 =
#660000
0!
0&
#665000
1!
1&
0:
0;
b1000011 <
b1000011 =
#670000
0!
0&
#675000
1!
1&
0:
0;
b1000100 <
b1000100 =
#680000
0!
0&
#685000
1!
1&
0:
0;
b1000101 <
b1000101 =
#690000
0!
0&
#695000
1!
1&
0:
0;
b1000110 <
b1000110 =
#700000
0!
0&
#705000
1!
1&
0:
0;
b1000111 <
b1000111 =
#710000
0!
0&
#715000
1!
1&
0:
0;
b1001000 <
b1001000 =
#720000
0!
0&
#725000
1!
1&
0:
0;
b1001001 <
b1001001 =
#730000
0!
0&
#735000
1!
1&
0:
0;
b1001010 <
b1001010 =
#740000
0!
0&
#745000
1!
1&
0:
0;
b1001011 <
b1001011 =
#750000
0!
0&
#755000
1!
1&
0:
0;
b1001100 <
b1001100 =
#760000
0!
0&
#765000
1!
1&
0:
0;
b1001101 <
b1001101 =
#770000
0!
0&
#775000
1!
1&
0:
0;
b1001110 <
b1001110 =
#780000
0!
0&
#785000
1!
1&
0:
0;
b1001111 <
b1001111 =
#790000
0!
0&
#795000
1!
1&
0:
0;
b1010000 <
b1010000 =
#800000
0!
0&
#805000
1!
1&
0:
0;
b1010001 <
b1010001 =
#810000
0!
0&
#815000
1!
1&
0:
0;
b1010010 <
b1010010 =
#820000
0!
0&
#825000
1!
1&
0:
0;
b1010011 <
b1010011 =
#830000
0!
0&
#835000
1!
1&
0:
0;
b1010100 <
b1010100 =
#840000
0!
0&
#845000
1!
1&
0:
0;
b1010101 <
b1010101 =
#850000
0!
0&
#855000
1!
1&
0:
0;
b1010110 <
b1010110 =
#860000
0!
0&
#865000
1!
1&
0:
0;
b1010111 <
b1010111 =
#870000
0!
0&
#875000
1!
1&
0:
0;
b1011000 <
b1011000 =
#880000
0!
0&
#885000
1!
1&
0:
0;
b1011001 <
b1011001 =
#890000
0!
0&
#895000
1!
1&
0:
0;
b1011010 <
b1011010 =
#900000
0!
0&
#905000
1!
1&
0:
0;
b1011011 <
b1011011 =
#910000
0!
0&
#915000
1!
1&
0:
0;
b1011100 <
b1011100 =
#920000
0!
0&
#925000
1!
1&
0:
0;
b1011101 <
b1011101 =
#930000
0!
0&
#935000
1!
1&
0:
0;
b1011110 <
b1011110 =
#940000
0!
0&
#945000
1!
1&
0:
0;
b1011111 <
b1011111 =
#950000
0!
0&
#955000
1!
1&
0:
0;
b1100000 <
b1100000 =
#960000
0!
0&
#965000
1!
1&
0:
0;
b1100001 <
b1100001 =
#970000
0!
0&
#975000
1!
1&
0:
0;
b1100010 <
b1100010 =
#980000
0!
0&
#985000
1!
1&
0:
0;
b1100011 <
b1100011 =
#990000
0!
0&
#995000
1!
1&
0:
0;
b1100100 <
b1100100 =
